…
Data dictionaries have a method called `recode()`, which leverages the
`dplyr::recode()` function in combination with information stored in the
dictionary to provide a ‘smart’ recoder. The ‘smart’ part is that this
recode function doesn’t require you to provide recode values. Instead,
it looks for appropriate recode values in the dictionary.

``` r

# This function is embedded in the dictionary itself, so it's called by 
# typing the name of the dictionary, followed by `$recode(x)`, where 
# `x` is the vector you intend to recode. For example:

data_peng %>% 
  mutate(sex = dd_peng$recode(sex))
#> # A tibble: 344 × 5
#>    species sex   body_mass_g bill_length_mm bill_depth_mm
#>    <fct>   <fct>       <int>          <dbl>         <dbl>
#>  1 Adelie  M            3750           39.1          18.7
#>  2 Adelie  F            3800           39.5          17.4
#>  3 Adelie  F            3250           40.3          18  
#>  4 Adelie  <NA>           NA           NA            NA  
#>  5 Adelie  F            3450           36.7          19.3
#>  6 Adelie  M            3650           39.3          20.6
#>  7 Adelie  F            3625           38.9          17.8
#>  8 Adelie  M            4675           39.2          19.6
#>  9 Adelie  <NA>         3475           34.1          18.1
#> 10 Adelie  <NA>         4250           42            20.2
#> # ℹ 334 more rows
```

This works both for variable names and variable categories. For example,
pivoting our data to a longer format will move several variable names
into a new column called `name`, and this column can be recoded just
like we did above.

``` r

data_peng %>% 
  pivot_longer(starts_with("bill_")) %>% 
  mutate(name = dd_peng$recode(name))
#> # A tibble: 688 × 5
#>    species sex    body_mass_g name        value
#>    <fct>   <fct>        <int> <chr>       <dbl>
#>  1 Adelie  male          3750 Bill length  39.1
#>  2 Adelie  male          3750 Bill depth   18.7
#>  3 Adelie  female        3800 Bill length  39.5
#>  4 Adelie  female        3800 Bill depth   17.4
#>  5 Adelie  female        3250 Bill length  40.3
#>  6 Adelie  female        3250 Bill depth   18  
#>  7 Adelie  <NA>            NA Bill length  NA  
#>  8 Adelie  <NA>            NA Bill depth   NA  
#>  9 Adelie  female        3450 Bill length  36.7
#> 10 Adelie  female        3450 Bill depth   19.3
#> # ℹ 678 more rows
```
…
# in case the smart dictionary recoder fails, you can fall back 
# on the more reliable methods get_variable_recoder and 
# get_level_recoder, which are also public methods for dictionaries

recode_bills <- dd_peng$get_variable_recoder(name = c("bill_length_mm",
                                                      "bill_depth_mm"))

recode_sex <- dd_peng$get_level_recoder(name = 'sex')

data_peng %>% 
  pivot_longer(starts_with("bill_")) %>% 
  mutate(name = recode(name, !!!recode_bills),
         sex = recode(sex, !!!recode_sex))
#> # A tibble: 688 × 5
#>    species sex   body_mass_g name        value
#>    <fct>   <fct>       <int> <chr>       <dbl>
#>  1 Adelie  M            3750 Bill length  39.1
#>  2 Adelie  M            3750 Bill depth   18.7
#>  3 Adelie  F            3800 Bill length  39.5
#>  4 Adelie  F            3800 Bill depth   17.4
#>  5 Adelie  F            3250 Bill length  40.3
#>  6 Adelie  F            3250 Bill depth   18  
#>  7 Adelie  <NA>           NA Bill length  NA  
#>  8 Adelie  <NA>           NA Bill depth   NA  
#>  9 Adelie  F            3450 Bill length  36.7
#> 10 Adelie  F            3450 Bill depth   19.3
#> # ℹ 678 more rows
```
…
