perinary: Data Dictionaries • perinary
…
Modify objects using dictionaries

The translate function family includes translate_categories(), translate_names(), and translate_data(). These functions are the bridge between your dictionary and your data. So, how do they work?

Instead of requiring name-value pairs in the function call, translate functions look up the relevant name value pairs in dictionary:

data_peng %>% 
  mutate(sex = translate_categories(sex, dictionary = dd_peng))
#> # A tibble: 344 × 5
#>    species sex             body_mass_g bill_length_mm bill_depth_mm
#>    <fct>   <chr>                 <int>          <dbl>         <dbl>
#>  1 Adelie  Male penguins          3750           39.1          18.7
#>  2 Adelie  Female penguins        3800           39.5          17.4
#>  3 Adelie  Female penguins        3250           40.3          18  
#>  4 Adelie  <NA>                     NA           NA            NA  
#>  5 Adelie  Female penguins        3450           36.7          19.3
#>  6 Adelie  Male penguins          3650           39.3          20.6
#>  7 Adelie  Female penguins        3625           38.9          17.8
#>  8 Adelie  Male penguins          4675           39.2          19.6
#>  9 Adelie  <NA>                   3475           34.1          18.1
#> 10 Adelie  <NA>                   4250           42            20.2
#> # ℹ 334 more rows

While translate_categories() replaces category levels with labels, translate_names() replaces variable names with labels. This is useful when variable names become column values, e.g., after using pivot_longer or melt:

data_peng %>% 
  pivot_longer(starts_with("bill_")) %>% 
  mutate(name = translate_names(name, dictionary = dd_peng))
#> # A tibble: 688 × 5
#>    species sex    body_mass_g name        value
#>    <fct>   <fct>        <int> <chr>       <dbl>
#>  1 Adelie  male          3750 Bill length  39.1
#>  2 Adelie  male          3750 Bill depth   18.7
#>  3 Adelie  female        3800 Bill length  39.5
#>  4 Adelie  female        3800 Bill depth   17.4
#>  5 Adelie  female        3250 Bill length  40.3
#>  6 Adelie  female        3250 Bill depth   18  
#>  7 Adelie  <NA>            NA Bill length  NA  
#>  8 Adelie  <NA>            NA Bill depth   NA  
#>  9 Adelie  female        3450 Bill length  36.7
#> 10 Adelie  female        3450 Bill depth   19.3
#> # ℹ 678 more rows

translate_data() is a general convenience tool that:

sets variable labels as column attributes

recodes category levels to corresponding labels

converts characters to factors (factors are required to apply the category order specified in the dictionary)

divide continuous variables by their corresponding modeling divisor if `units = ‘model’, and update labels accordingly

data_peng %>% 
  translate_data(dictionary = dd_peng)
#> # A tibble: 344 × 5
#>    species sex             body_mass_g bill_length_mm bill_depth_mm
#>    <fct>   <fct>                 <int>          <dbl>         <dbl>
#>  1 Adelie  Male penguins          3750           39.1          18.7
#>  2 Adelie  Female penguins        3800           39.5          17.4
#>  3 Adelie  Female penguins        3250           40.3          18  
#>  4 Adelie  <NA>                     NA           NA            NA  
#>  5 Adelie  Female penguins        3450           36.7          19.3
#>  6 Adelie  Male penguins          3650           39.3          20.6
#>  7 Adelie  Female penguins        3625           38.9          17.8
#>  8 Adelie  Male penguins          4675           39.2          19.6
#>  9 Adelie  <NA>                   3475           34.1          18.1
#> 10 Adelie  <NA>                   4250           42            20.2
#> # ℹ 334 more rows

Set your default

Writing meta data in a dictionary should make it easier to put that information in outputs. However, supplying the dictionary as an input to every single perinary function gets unnecessarily tedious. For convenience, you can save any dictionary you make as the “default” dictionary for perinary functions during your current R session. The default dictionary will be used whenever a perinary function is called and a dictionary is not explicitly supplied by the user.

set_default_dictionary(dd_peng)

data_peng %>% 
  pivot_longer(starts_with("bill_")) %>% 
  mutate(name = translate_names(name),
         sex = translate_categories(sex))
#> # A tibble: 688 × 5
#>    species sex             body_mass_g name        value
#>    <fct>   <chr>                 <int> <chr>       <dbl>
#>  1 Adelie  Male penguins          3750 Bill length  39.1
#>  2 Adelie  Male penguins          3750 Bill depth   18.7
#>  3 Adelie  Female penguins        3800 Bill length  39.5
#>  4 Adelie  Female penguins        3800 Bill depth   17.4
#>  5 Adelie  Female penguins        3250 Bill length  40.3
#>  6 Adelie  Female penguins        3250 Bill depth   18  
#>  7 Adelie  <NA>                     NA Bill length  NA  
#>  8 Adelie  <NA>                     NA Bill depth   NA  
#>  9 Adelie  Female penguins        3450 Bill length  36.7
#> 10 Adelie  Female penguins        3450 Bill depth   19.3
#> # ℹ 678 more rows
…
